…
```
last_col(offset = 0L, vars = NULL)
```

1. **`offset`** : specifies the position offset from the last column.
   
   - If `offset = 0`, the function selects the very last column.
   - If `offset > 0`, it selects the column that is `offset` positions to the left of the last column. For example, `offset = 1` selects the second-to-last column.

2. **`vars`** represents which tibble is to be selected.
   
   ```r
   mtcars %>% select(1:last_col(5))
   #> # A tibble: 32 x 6
   #>     mpg   cyl  disp    hp  drat    wt
   #>   <dbl> <dbl> <dbl> <dbl> <dbl> <dbl>
   #> 1  21       6   160   110  3.9   2.62
   #> 2  21       6   160   110  3.9   2.88
   #> 3  22.8     4   108    93  3.85  2.32
   #> 4  21.4     6   258   110  3.08  3.22
   #> # i 28 more rows
…
#### seperate_longer_position

**`seperate_longer_position()`** separats a string into rows based on a fixed width, effectively breaking the data into evenly sized segments.

```r
df2 <- tibble(x = c("1211", "131", "21"))
df2 |> 
  separate_longer_position(x, width = 1)
#> # A tibble: 9 × 1
#>   x    
#>   <chr>
#> 1 1    
#> 2 2    
#> 3 1    
#> 4 1    
#> 5 1    
#> 6 3    
#> # ℹ 3 more rows
```
…
  "<Patricia>-F_84", 
)
df |> 
  separate_wider_regex(
    str,
    patterns = c(
      "<", 
      name = "[A-Za-z]+", 
      ">-", 
      gender = ".",
      "_",
      age = "[0-9]+"
    )
  )
#> # A tibble: 7 × 3
#>   name    gender age  
#>   <chr>   <chr>  <chr>
#> 1 Sheryl  F      34   
#> 2 Kisha   F      45   
#> 3 Brandon N      33   
#> 4 Sharon  F      38   
#> 5 Penny   F      58   
#> 6 Justin  M      41   
#> # ℹ 1 more row
```
…
```r
fct_rev(f)
```

## Modifying factor levels

The functions described below <u>do not modify the underlying levels of a factor in memory.</u> Instead, they adjust how the levels are treated or displayed in subsequent operations involving the factor. While the factor’s original levels remain unchanged, these functions alter their behavior or appearance for specific tasks.

### fct_recode

**`fct_recode()`** changes the value of each level.

```r
gss_cat |> count(partyid)
#> # A tibble: 10 × 2
#>   partyid                n
#>   <fct>              <int>
#> 1 No answer            154
#> 2 Don't know             1
#> 3 Other party          393
#> 4 Strong republican   2314
#> 5 Not str republican  3032
#> 6 Ind,near rep        1791
#> # ℹ 4 more rows
gss_cat |>
  mutate(
    partyid = fct_recode(partyid,
      "Republican, strong"    = "Strong republican",
      "Republican, weak"      = "Not str republican",
      "Independent, near rep" = "Ind,near rep",
      "Independent, near dem" = "Ind,near dem",
      "Democrat, weak"        = "Not str democrat",
      "Democrat, strong"      = "Strong democrat"
    )
  ) |>
  count(partyid)
#> # A tibble: 10 × 2
#>   partyid                   n
#>   <fct>                 <int>
#> 1 No answer               154
#> 2 Don't know                1
#> 3 Other party             393
#> 4 Republican, strong     2314
#> 5 Republican, weak       3032
#> 6 Independent, near rep  1791
#> # ℹ 4 more rows
```
…
- **day**: numeric day

- **hour**: numeric hour

- **min**: numeric minute

- **sec**: numeric second

- **tz**: time zone. Defaults to UTC.

```r
flights |> 
  select(year, month, day, hour, minute) |> 
  mutate(departure = make_datetime(year, month, day, hour, minute))
#> # A tibble: 336,776 × 6
#>    year month   day  hour minute departure          
#>   <int> <int> <int> <dbl>  <dbl> <dttm>             
#> 1  2013     1     1     5     15 2013-01-01 05:15:00
#> 2  2013     1     1     5     29 2013-01-01 05:29:00
#> 3  2013     1     1     5     40 2013-01-01 05:40:00
#> 4  2013     1     1     5     45 2013-01-01 05:45:00
#> 5  2013     1     1     6      0 2013-01-01 06:00:00
#> 6  2013     1     1     5     58 2013-01-01 05:58:00
#> # ℹ 336,770 more rows
```
…
